%YAML 1.1
%TAG !u! tag:unity3d.com,2011:
--- !u!134 &13400000
PhysicMaterial:
  m_ObjectHideFlags: 0
  m_CorrespondingSourceObject: {fileID: 0}
  m_PrefabInternal: {fileID: 0}
  m_Name: target
  dynamicFriction: 0.6
  staticFriction: 1
  bounciness: 0
  frictionCombine: 0
  bounceCombine: 0
